[{"id":1,"first_name":"Doralynn","last_name":"Tomashov","email":"dtomashov0@home.pl","gender":"Female","ip_address":"237.153.91.38"},
{"id":2,"first_name":"Peterus","last_name":"St. Leger","email":"pstleger1@goo.ne.jp","gender":"Male","ip_address":"191.60.175.143"},
{"id":3,"first_name":"Abel","last_name":"Ales","email":"aales2@google.de","gender":"Male","ip_address":"235.47.35.209"},
{"id":4,"first_name":"Glennis","last_name":"Bonwell","email":"gbonwell3@ifeng.com","gender":"Female","ip_address":"31.69.195.228"},
{"id":5,"first_name":"Carlen","last_name":"Stocks","email":"cstocks4@utexas.edu","gender":"Female","ip_address":"210.242.200.89"},
{"id":6,"first_name":"Noni","last_name":"Reynolds","email":"nreynolds5@photobucket.com","gender":"Female","ip_address":"222.36.1.11"},
{"id":7,"first_name":"Inness","last_name":"Layborn","email":"ilayborn6@baidu.com","gender":"Male","ip_address":"48.117.128.76"},
{"id":8,"first_name":"Wain","last_name":"Hounson","email":"whounson7@patch.com","gender":"Male","ip_address":"73.150.220.179"},
{"id":9,"first_name":"Sarine","last_name":"Thridgould","email":"sthridgould8@freewebs.com","gender":"Female","ip_address":"98.35.111.131"},
{"id":10,"first_name":"Gweneth","last_name":"Mattussevich","email":"gmattussevich9@yale.edu","gender":"Female","ip_address":"87.130.63.178"},
{"id":11,"first_name":"Eleonora","last_name":"Oury","email":"eourya@fotki.com","gender":"Female","ip_address":"243.181.117.128"},
{"id":12,"first_name":"Amanda","last_name":"Booi","email":"abooib@pcworld.com","gender":"Female","ip_address":"102.42.90.34"},
{"id":13,"first_name":"Moll","last_name":"Haine","email":"mhainec@sourceforge.net","gender":"Female","ip_address":"158.11.140.173"},
{"id":14,"first_name":"Pacorro","last_name":"Cragell","email":"pcragelld@army.mil","gender":"Male","ip_address":"167.169.174.204"},
{"id":15,"first_name":"Myrvyn","last_name":"Guarin","email":"mguarine@paginegialle.it","gender":"Male","ip_address":"47.103.70.201"},
{"id":16,"first_name":"Wynnie","last_name":"Boyes","email":"wboyesf@twitter.com","gender":"Female","ip_address":"111.136.94.206"},
{"id":17,"first_name":"Orville","last_name":"Warrington","email":"owarringtong@tumblr.com","gender":"Male","ip_address":"66.218.68.180"},
{"id":18,"first_name":"Wake","last_name":"Sarll","email":"wsarllh@1und1.de","gender":"Male","ip_address":"157.15.184.197"},
{"id":19,"first_name":"Lishe","last_name":"Esmead","email":"lesmeadi@elegantthemes.com","gender":"Female","ip_address":"153.2.137.184"},
{"id":20,"first_name":"Arlie","last_name":"Mandeville","email":"amandevillej@devhub.com","gender":"Female","ip_address":"117.148.166.24"},
{"id":21,"first_name":"Van","last_name":"Gadie","email":"vgadiek@cargocollective.com","gender":"Female","ip_address":"11.211.111.165"},
{"id":22,"first_name":"Jarib","last_name":"Lesmonde","email":"jlesmondel@amazon.com","gender":"Male","ip_address":"97.28.197.35"},
{"id":23,"first_name":"Caty","last_name":"Thorp","email":"cthorpm@illinois.edu","gender":"Female","ip_address":"120.198.232.97"},
{"id":24,"first_name":"Chance","last_name":"Ferson","email":"cfersonn@globo.com","gender":"Male","ip_address":"116.119.139.58"},
{"id":25,"first_name":"Philipa","last_name":"Weaben","email":"pweabeno@cdbaby.com","gender":"Female","ip_address":"75.124.171.64"},
{"id":26,"first_name":"Elinor","last_name":"Fernie","email":"eferniep@microsoft.com","gender":"Female","ip_address":"30.85.214.44"},
{"id":27,"first_name":"Ransell","last_name":"Luckcuck","email":"rluckcuckq@google.cn","gender":"Male","ip_address":"49.217.43.8"},
{"id":28,"first_name":"Agatha","last_name":"Dodson","email":"adodsonr@irs.gov","gender":"Female","ip_address":"204.33.67.196"},
{"id":29,"first_name":"Gayleen","last_name":"Allery","email":"gallerys@cornell.edu","gender":"Female","ip_address":"46.151.164.51"},
{"id":30,"first_name":"Meade","last_name":"Cranshaw","email":"mcranshawt@harvard.edu","gender":"Male","ip_address":"211.4.79.247"},
{"id":31,"first_name":"Abran","last_name":"Langston","email":"alangstonu@weebly.com","gender":"Male","ip_address":"98.20.95.177"},
{"id":32,"first_name":"Vyky","last_name":"Imesson","email":"vimessonv@independent.co.uk","gender":"Female","ip_address":"165.98.53.145"},
{"id":33,"first_name":"Emmet","last_name":"Crennan","email":"ecrennanw@imageshack.us","gender":"Male","ip_address":"150.22.3.142"},
{"id":34,"first_name":"Ibrahim","last_name":"Van Velde","email":"ivanveldex@ibm.com","gender":"Male","ip_address":"129.161.228.201"},
{"id":35,"first_name":"Simone","last_name":"Lorenzini","email":"slorenziniy@instagram.com","gender":"Male","ip_address":"76.118.125.57"},
{"id":36,"first_name":"Oralee","last_name":"Gawthrope","email":"ogawthropez@creativecommons.org","gender":"Female","ip_address":"126.50.11.215"},
{"id":37,"first_name":"Agathe","last_name":"Witherby","email":"awitherby10@tmall.com","gender":"Female","ip_address":"183.200.63.231"},
{"id":38,"first_name":"Wyatan","last_name":"Smither","email":"wsmither11@chron.com","gender":"Male","ip_address":"181.41.84.239"},
{"id":39,"first_name":"Cordi","last_name":"Charke","email":"ccharke12@yolasite.com","gender":"Female","ip_address":"94.12.122.217"},
{"id":40,"first_name":"Erinn","last_name":"O'Neal","email":"eoneal13@nationalgeographic.com","gender":"Female","ip_address":"228.70.199.78"},
{"id":41,"first_name":"Berky","last_name":"Brew","email":"bbrew14@arizona.edu","gender":"Male","ip_address":"41.223.109.221"},
{"id":42,"first_name":"Brooks","last_name":"Condy","email":"bcondy15@whitehouse.gov","gender":"Male","ip_address":"224.121.123.41"},
{"id":43,"first_name":"Avram","last_name":"Balog","email":"abalog16@toplist.cz","gender":"Male","ip_address":"204.188.134.117"},
{"id":44,"first_name":"Nevins","last_name":"Machen","email":"nmachen17@icq.com","gender":"Male","ip_address":"211.41.200.114"},
{"id":45,"first_name":"Saleem","last_name":"Dyet","email":"sdyet18@ibm.com","gender":"Male","ip_address":"67.46.204.127"},
{"id":46,"first_name":"Jacky","last_name":"Corbould","email":"jcorbould19@techcrunch.com","gender":"Male","ip_address":"23.54.179.243"},
{"id":47,"first_name":"Rickie","last_name":"Wheaton","email":"rwheaton1a@ftc.gov","gender":"Male","ip_address":"232.17.203.160"},
{"id":48,"first_name":"Reynold","last_name":"Brook","email":"rbrook1b@marketwatch.com","gender":"Male","ip_address":"47.59.127.97"},
{"id":49,"first_name":"Wolfie","last_name":"Brashier","email":"wbrashier1c@mac.com","gender":"Male","ip_address":"237.108.67.180"},
{"id":50,"first_name":"Helga","last_name":"Salmen","email":"hsalmen1d@google.co.jp","gender":"Female","ip_address":"217.15.86.192"},
{"id":51,"first_name":"Amby","last_name":"Maynell","email":"amaynell1e@ucla.edu","gender":"Male","ip_address":"198.252.194.218"},
{"id":52,"first_name":"Bria","last_name":"MacNally","email":"bmacnally1f@yolasite.com","gender":"Female","ip_address":"74.77.55.243"},
{"id":53,"first_name":"Rochelle","last_name":"Feldberg","email":"rfeldberg1g@parallels.com","gender":"Female","ip_address":"89.69.98.73"},
{"id":54,"first_name":"Gleda","last_name":"Woodrow","email":"gwoodrow1h@1und1.de","gender":"Female","ip_address":"252.50.101.89"},
{"id":55,"first_name":"Sebastiano","last_name":"Franey","email":"sfraney1i@rambler.ru","gender":"Male","ip_address":"108.32.160.173"},
{"id":56,"first_name":"Haroun","last_name":"Gozney","email":"hgozney1j@i2i.jp","gender":"Male","ip_address":"217.117.55.170"},
{"id":57,"first_name":"Franzen","last_name":"Tredinnick","email":"ftredinnick1k@shop-pro.jp","gender":"Male","ip_address":"54.40.159.212"},
{"id":58,"first_name":"Jamal","last_name":"Normavill","email":"jnormavill1l@cnbc.com","gender":"Male","ip_address":"28.34.69.135"},
{"id":59,"first_name":"Amanda","last_name":"Kennard","email":"akennard1m@answers.com","gender":"Female","ip_address":"103.127.36.123"},
{"id":60,"first_name":"Sabra","last_name":"Oakshott","email":"soakshott1n@360.cn","gender":"Female","ip_address":"95.125.39.248"},
{"id":61,"first_name":"Rafael","last_name":"Mac Giany","email":"rmacgiany1o@pen.io","gender":"Male","ip_address":"98.82.63.185"},
{"id":62,"first_name":"Konstantin","last_name":"Dalgarno","email":"kdalgarno1p@meetup.com","gender":"Male","ip_address":"91.75.29.151"},
{"id":63,"first_name":"Swen","last_name":"Dilkes","email":"sdilkes1q@pen.io","gender":"Male","ip_address":"146.129.102.251"},
{"id":64,"first_name":"Austin","last_name":"Beart","email":"abeart1r@histats.com","gender":"Female","ip_address":"61.10.16.38"},
{"id":65,"first_name":"Shelton","last_name":"Orfeur","email":"sorfeur1s@marriott.com","gender":"Male","ip_address":"209.199.81.134"},
{"id":66,"first_name":"Alison","last_name":"Lethlay","email":"alethlay1t@liveinternet.ru","gender":"Female","ip_address":"142.150.109.231"},
{"id":67,"first_name":"Jamaal","last_name":"Rennels","email":"jrennels1u@weather.com","gender":"Male","ip_address":"159.29.176.41"},
{"id":68,"first_name":"Ebonee","last_name":"Alfonzo","email":"ealfonzo1v@about.com","gender":"Female","ip_address":"235.77.55.72"},
{"id":69,"first_name":"Tynan","last_name":"Grute","email":"tgrute1w@cam.ac.uk","gender":"Male","ip_address":"123.76.103.68"},
{"id":70,"first_name":"Albert","last_name":"Fusco","email":"afusco1x@zdnet.com","gender":"Male","ip_address":"33.115.219.246"},
{"id":71,"first_name":"Chicky","last_name":"Kenna","email":"ckenna1y@google.ru","gender":"Female","ip_address":"140.159.100.218"},
{"id":72,"first_name":"Clarisse","last_name":"Meehan","email":"cmeehan1z@edublogs.org","gender":"Female","ip_address":"220.52.62.202"},
{"id":73,"first_name":"Ramsey","last_name":"Kun","email":"rkun20@bbc.co.uk","gender":"Male","ip_address":"242.64.117.85"},
{"id":74,"first_name":"Claresta","last_name":"Sturt","email":"csturt21@csmonitor.com","gender":"Female","ip_address":"70.48.113.98"},
{"id":75,"first_name":"Dosi","last_name":"Kinnett","email":"dkinnett22@wikipedia.org","gender":"Female","ip_address":"222.195.129.184"},
{"id":76,"first_name":"Homer","last_name":"Jacobowicz","email":"hjacobowicz23@hubpages.com","gender":"Male","ip_address":"244.182.25.132"},
{"id":77,"first_name":"Vevay","last_name":"Randerson","email":"vranderson24@pcworld.com","gender":"Female","ip_address":"171.6.112.173"},
{"id":78,"first_name":"Wilhelmina","last_name":"Hastewell","email":"whastewell25@wp.com","gender":"Female","ip_address":"131.135.99.84"},
{"id":79,"first_name":"Orren","last_name":"Bleddon","email":"obleddon26@hugedomains.com","gender":"Male","ip_address":"68.209.76.140"},
{"id":80,"first_name":"Ofilia","last_name":"MacNulty","email":"omacnulty27@google.fr","gender":"Female","ip_address":"143.71.175.63"},
{"id":81,"first_name":"Kameko","last_name":"Dallmann","email":"kdallmann28@yellowpages.com","gender":"Female","ip_address":"161.183.136.228"},
{"id":82,"first_name":"Kent","last_name":"Fidgin","email":"kfidgin29@wikimedia.org","gender":"Male","ip_address":"31.93.200.58"},
{"id":83,"first_name":"Vern","last_name":"Murthwaite","email":"vmurthwaite2a@icio.us","gender":"Male","ip_address":"175.76.59.135"},
{"id":84,"first_name":"Patrice","last_name":"Hause","email":"phause2b@google.com","gender":"Male","ip_address":"145.241.151.105"},
{"id":85,"first_name":"Roy","last_name":"Diggle","email":"rdiggle2c@storify.com","gender":"Male","ip_address":"74.87.220.177"},
{"id":86,"first_name":"Robinson","last_name":"Mottram","email":"rmottram2d@barnesandnoble.com","gender":"Male","ip_address":"32.139.168.138"},
{"id":87,"first_name":"Rochette","last_name":"Pavy","email":"rpavy2e@artisteer.com","gender":"Female","ip_address":"74.8.46.202"},
{"id":88,"first_name":"Maureen","last_name":"Donovan","email":"mdonovan2f@people.com.cn","gender":"Female","ip_address":"48.94.64.217"},
{"id":89,"first_name":"Jarvis","last_name":"Dallmann","email":"jdallmann2g@lulu.com","gender":"Male","ip_address":"253.191.150.182"},
{"id":90,"first_name":"Luciano","last_name":"Crankshaw","email":"lcrankshaw2h@yellowpages.com","gender":"Male","ip_address":"194.55.29.80"},
{"id":91,"first_name":"Tadio","last_name":"Weatherdon","email":"tweatherdon2i@liveinternet.ru","gender":"Male","ip_address":"121.50.145.6"},
{"id":92,"first_name":"Izaak","last_name":"Janzen","email":"ijanzen2j@springer.com","gender":"Male","ip_address":"178.253.255.89"},
{"id":93,"first_name":"Clare","last_name":"Crips","email":"ccrips2k@google.co.jp","gender":"Male","ip_address":"176.59.202.166"},
{"id":94,"first_name":"Nedda","last_name":"McGinn","email":"nmcginn2l@smugmug.com","gender":"Female","ip_address":"218.25.151.182"},
{"id":95,"first_name":"Norah","last_name":"Apfel","email":"napfel2m@reddit.com","gender":"Female","ip_address":"169.52.130.85"},
{"id":96,"first_name":"Ambrosi","last_name":"St Pierre","email":"astpierre2n@cargocollective.com","gender":"Male","ip_address":"248.231.18.98"},
{"id":97,"first_name":"Rivalee","last_name":"Risen","email":"rrisen2o@shareasale.com","gender":"Female","ip_address":"205.144.80.244"},
{"id":98,"first_name":"Rosanne","last_name":"Ahmad","email":"rahmad2p@slashdot.org","gender":"Female","ip_address":"76.155.99.115"},
{"id":99,"first_name":"Lyon","last_name":"Yarranton","email":"lyarranton2q@hc360.com","gender":"Male","ip_address":"175.207.109.207"},
{"id":100,"first_name":"Corilla","last_name":"Dymick","email":"cdymick2r@last.fm","gender":"Female","ip_address":"32.74.229.193"}]